" NO2, O3_47_B3_clean.csv shift_history_depth",test_Pearson->1,test_rmse->0,"train [Pearson, rmse]"
1_87,0.65,5.64,"[0.93, 6.77]"
1_88,0.65,5.64,"[0.93, 6.76]"
1_89,0.65,5.64,"[0.93, 6.75]"
1_86,0.65,5.65,"[0.93, 6.78]"
1_84,0.65,5.66,"[0.93, 6.79]"
1_85,0.65,5.66,"[0.93, 6.79]"
1_83,0.64,5.67,"[0.93, 6.8]"
1_81,0.64,5.69,"[0.93, 6.82]"
1_82,0.64,5.69,"[0.93, 6.81]"
1_80,0.64,5.7,"[0.93, 6.83]"
1_79,0.64,5.71,"[0.93, 6.83]"
1_78,0.64,5.72,"[0.93, 6.85]"
1_77,0.64,5.73,"[0.93, 6.86]"
1_76,0.64,5.74,"[0.93, 6.86]"
1_75,0.64,5.76,"[0.93, 6.87]"
1_72,0.64,5.77,"[0.93, 6.9]"
1_73,0.64,5.77,"[0.93, 6.89]"
1_74,0.64,5.77,"[0.93, 6.88]"
1_71,0.63,5.78,"[0.93, 6.92]"
1_64,0.63,5.79,"[0.93, 6.97]"
1_65,0.63,5.79,"[0.93, 6.97]"
1_67,0.63,5.79,"[0.93, 6.95]"
1_70,0.63,5.79,"[0.93, 6.93]"
1_63,0.63,5.8,"[0.93, 6.98]"
1_66,0.63,5.8,"[0.93, 6.96]"
1_68,0.63,5.8,"[0.93, 6.94]"
1_69,0.63,5.8,"[0.93, 6.94]"
1_62,0.62,5.81,"[0.93, 6.99]"
1_61,0.62,5.82,"[0.93, 7.0]"
1_59,0.62,5.83,"[0.93, 7.03]"
1_60,0.62,5.83,"[0.93, 7.01]"
1_58,0.62,5.84,"[0.93, 7.04]"
1_57,0.62,5.85,"[0.93, 7.05]"
1_56,0.62,5.87,"[0.93, 7.06]"
1_55,0.61,5.88,"[0.93, 7.07]"
1_54,0.61,5.89,"[0.93, 7.09]"
1_53,0.61,5.9,"[0.93, 7.09]"
1_52,0.61,5.91,"[0.93, 7.1]"
1_51,0.6,5.92,"[0.93, 7.12]"
1_50,0.6,5.93,"[0.93, 7.13]"
1_49,0.6,5.94,"[0.93, 7.14]"
1_48,0.59,5.96,"[0.92, 7.16]"
1_47,0.59,5.98,"[0.92, 7.17]"
1_46,0.59,6.0,"[0.92, 7.18]"
1_45,0.58,6.01,"[0.92, 7.19]"
1_44,0.58,6.03,"[0.92, 7.2]"
1_43,0.58,6.05,"[0.92, 7.2]"
2_38,0.58,6.26,"[0.93, 7.06]"
1_42,0.57,6.07,"[0.92, 7.21]"
1_41,0.57,6.08,"[0.92, 7.22]"
1_40,0.57,6.09,"[0.92, 7.23]"
1_39,0.57,6.11,"[0.92, 7.24]"
2_36,0.57,6.26,"[0.93, 7.08]"
2_37,0.57,6.26,"[0.93, 7.06]"
2_34,0.57,6.29,"[0.93, 7.11]"
2_35,0.57,6.29,"[0.93, 7.1]"
2_39,0.57,6.3,"[0.93, 7.05]"
1_38,0.56,6.12,"[0.92, 7.25]"
1_37,0.56,6.13,"[0.92, 7.26]"
1_36,0.56,6.14,"[0.92, 7.27]"
1_35,0.56,6.15,"[0.92, 7.29]"
1_34,0.56,6.16,"[0.92, 7.3]"
1_33,0.56,6.18,"[0.92, 7.31]"
2_33,0.56,6.3,"[0.93, 7.13]"
2_32,0.56,6.32,"[0.93, 7.13]"
2_31,0.56,6.35,"[0.92, 7.16]"
1_32,0.55,6.2,"[0.92, 7.33]"
1_31,0.55,6.21,"[0.92, 7.34]"
1_30,0.55,6.22,"[0.92, 7.35]"
1_29,0.55,6.24,"[0.92, 7.36]"
1_28,0.55,6.27,"[0.92, 7.38]"
1_27,0.55,6.3,"[0.92, 7.4]"
2_30,0.55,6.38,"[0.92, 7.17]"
2_29,0.55,6.42,"[0.92, 7.19]"
2_28,0.55,6.43,"[0.92, 7.2]"
3_36,0.55,6.51,"[0.93, 6.98]"
3_37,0.55,6.51,"[0.93, 6.97]"
3_35,0.55,6.53,"[0.93, 6.99]"
3_38,0.55,6.54,"[0.93, 6.96]"
3_39,0.55,6.54,"[0.93, 6.95]"
1_26,0.54,6.33,"[0.92, 7.41]"
1_25,0.54,6.35,"[0.92, 7.42]"
1_24,0.54,6.37,"[0.92, 7.43]"
2_27,0.54,6.45,"[0.92, 7.23]"
2_26,0.54,6.46,"[0.92, 7.24]"
3_34,0.54,6.54,"[0.93, 7.01]"
3_33,0.54,6.55,"[0.93, 7.02]"
3_25,0.54,6.56,"[0.92, 7.16]"
1_23,0.53,6.39,"[0.92, 7.45]"
1_22,0.53,6.41,"[0.92, 7.46]"
1_21,0.53,6.44,"[0.92, 7.47]"
2_25,0.53,6.47,"[0.92, 7.26]"
2_24,0.53,6.48,"[0.92, 7.29]"
2_23,0.53,6.51,"[0.92, 7.31]"
3_21,0.53,6.56,"[0.92, 7.24]"
3_22,0.53,6.56,"[0.92, 7.23]"
3_23,0.53,6.56,"[0.92, 7.21]"
3_24,0.53,6.56,"[0.92, 7.18]"
3_19,0.53,6.57,"[0.92, 7.3]"
3_20,0.53,6.57,"[0.92, 7.27]"
3_32,0.53,6.58,"[0.93, 7.05]"
3_31,0.53,6.61,"[0.93, 7.06]"
3_26,0.53,6.62,"[0.93, 7.15]"
3_30,0.53,6.64,"[0.93, 7.08]"
4_32,0.53,6.71,"[0.93, 6.97]"
4_33,0.53,6.71,"[0.93, 6.95]"
4_34,0.53,6.71,"[0.93, 6.94]"
4_31,0.53,6.73,"[0.93, 6.99]"
1_20,0.52,6.47,"[0.92, 7.5]"
1_19,0.52,6.49,"[0.92, 7.52]"
2_22,0.52,6.52,"[0.92, 7.32]"
1_18,0.52,6.53,"[0.92, 7.53]"
2_21,0.52,6.54,"[0.92, 7.34]"
2_14,0.52,6.58,"[0.92, 7.54]"
3_18,0.52,6.58,"[0.92, 7.33]"
3_17,0.52,6.6,"[0.92, 7.37]"
3_27,0.52,6.65,"[0.93, 7.13]"
3_29,0.52,6.65,"[0.93, 7.1]"
4_18,0.52,6.65,"[0.92, 7.25]"
4_19,0.52,6.65,"[0.92, 7.23]"
3_28,0.52,6.66,"[0.93, 7.11]"
4_16,0.52,6.66,"[0.92, 7.3]"
4_17,0.52,6.66,"[0.92, 7.28]"
4_38,0.52,6.67,"[0.93, 6.87]"
4_39,0.52,6.67,"[0.93, 6.85]"
4_37,0.52,6.68,"[0.93, 6.89]"
4_35,0.52,6.7,"[0.93, 6.93]"
4_36,0.52,6.7,"[0.93, 6.9]"
4_30,0.52,6.75,"[0.93, 7.01]"
4_27,0.52,6.77,"[0.93, 7.04]"
4_28,0.52,6.77,"[0.93, 7.03]"
4_29,0.52,6.77,"[0.93, 7.02]"
2_20,0.51,6.56,"[0.92, 7.36]"
1_17,0.51,6.57,"[0.92, 7.55]"
2_19,0.51,6.59,"[0.92, 7.39]"
2_15,0.51,6.6,"[0.92, 7.52]"
2_18,0.51,6.6,"[0.92, 7.41]"
1_16,0.51,6.61,"[0.92, 7.57]"
2_16,0.51,6.61,"[0.92, 7.47]"
2_17,0.51,6.61,"[0.92, 7.45]"
2_13,0.51,6.62,"[0.91, 7.61]"
3_16,0.51,6.62,"[0.92, 7.4]"
3_15,0.51,6.65,"[0.92, 7.43]"
2_12,0.51,6.66,"[0.91, 7.63]"
4_14,0.51,6.67,"[0.92, 7.41]"
4_15,0.51,6.68,"[0.92, 7.37]"
4_13,0.51,6.69,"[0.92, 7.45]"
5_15,0.51,6.7,"[0.92, 7.32]"
4_20,0.51,6.71,"[0.92, 7.19]"
4_23,0.51,6.77,"[0.93, 7.13]"
4_24,0.51,6.77,"[0.93, 7.11]"
4_25,0.51,6.77,"[0.93, 7.08]"
4_26,0.51,6.78,"[0.93, 7.06]"
5_22,0.51,6.81,"[0.93, 7.11]"
5_25,0.51,6.86,"[0.93, 7.05]"
1_15,0.5,6.65,"[0.92, 7.58]"
3_14,0.5,6.69,"[0.92, 7.49]"
1_14,0.5,6.7,"[0.91, 7.61]"
4_12,0.5,6.71,"[0.92, 7.49]"
2_11,0.5,6.73,"[0.91, 7.69]"
5_14,0.5,6.73,"[0.92, 7.39]"
4_21,0.5,6.76,"[0.92, 7.17]"
5_36,0.5,6.76,"[0.93, 6.84]"
4_22,0.5,6.77,"[0.93, 7.15]"
5_33,0.5,6.77,"[0.93, 6.88]"
5_35,0.5,6.77,"[0.93, 6.86]"
5_32,0.5,6.78,"[0.93, 6.91]"
5_34,0.5,6.78,"[0.93, 6.87]"
5_31,0.5,6.8,"[0.93, 6.93]"
5_20,0.5,6.81,"[0.93, 7.15]"
5_21,0.5,6.81,"[0.93, 7.13]"
5_30,0.5,6.84,"[0.93, 6.95]"
5_23,0.5,6.85,"[0.93, 7.09]"
5_24,0.5,6.86,"[0.93, 7.07]"
5_29,0.5,6.88,"[0.93, 6.97]"
5_26,0.5,6.89,"[0.93, 7.02]"
5_27,0.5,6.89,"[0.93, 7.01]"
5_28,0.5,6.89,"[0.93, 6.99]"
3_13,0.49,6.72,"[0.92, 7.51]"
3_12,0.49,6.74,"[0.92, 7.55]"
5_13,0.49,6.74,"[0.92, 7.43]"
5_11,0.49,6.75,"[0.92, 7.5]"
5_12,0.49,6.75,"[0.92, 7.46]"
5_37,0.49,6.75,"[0.93, 6.83]"
1_13,0.49,6.76,"[0.91, 7.65]"
3_10,0.49,6.76,"[0.91, 7.69]"
5_16,0.49,6.78,"[0.92, 7.29]"
5_38,0.49,6.78,"[0.93, 6.81]"
5_39,0.49,6.78,"[0.93, 6.8]"
2_10,0.49,6.79,"[0.91, 7.72]"
5_17,0.49,6.82,"[0.92, 7.26]"
5_19,0.49,6.83,"[0.92, 7.21]"
5_18,0.49,6.84,"[0.92, 7.23]"
3_11,0.48,6.78,"[0.91, 7.64]"
4_11,0.48,6.79,"[0.92, 7.57]"
5_10,0.48,6.8,"[0.92, 7.55]"
1_12,0.48,6.83,"[0.91, 7.68]"
1_11,0.48,6.89,"[0.91, 7.73]"
4_10,0.47,6.85,"[0.91, 7.62]"
1_10,0.47,6.95,"[0.91, 7.78]"
