"SO2, CA01PM0006E4 shift_history_depth",test_Pearson->1,test_rmse->0,"train [Pearson, rmse]"
1_16,0.77,33.33,"[0.92, 37.66]"
2_8,0.77,33.35,"[0.91, 37.83]"
1_15,0.77,33.36,"[0.92, 37.76]"
3_5,0.77,33.38,"[0.91, 38.03]"
1_17,0.77,33.39,"[0.92, 37.54]"
3_6,0.77,33.4,"[0.91, 37.78]"
1_14,0.77,33.45,"[0.91, 37.85]"
1_18,0.77,33.46,"[0.92, 37.45]"
2_9,0.77,33.46,"[0.92, 37.64]"
2_7,0.77,33.47,"[0.91, 37.98]"
1_19,0.77,33.57,"[0.92, 37.39]"
1_13,0.77,33.59,"[0.91, 37.97]"
3_7,0.77,33.65,"[0.92, 37.71]"
2_10,0.77,33.66,"[0.92, 37.57]"
1_12,0.77,33.77,"[0.91, 38.09]"
3_4,0.77,33.77,"[0.91, 38.32]"
2_6,0.77,33.79,"[0.91, 38.21]"
1_11,0.77,33.97,"[0.91, 38.24]"
3_8,0.76,33.83,"[0.92, 37.67]"
2_11,0.76,33.9,"[0.92, 37.52]"
3_9,0.76,33.99,"[0.92, 37.6]"
2_2,0.76,34.08,"[0.91, 39.11]"
2_12,0.76,34.08,"[0.92, 37.48]"
3_10,0.76,34.08,"[0.92, 37.48]"
1_10,0.76,34.14,"[0.91, 38.35]"
2_5,0.76,34.14,"[0.91, 38.44]"
3_11,0.76,34.19,"[0.92, 37.42]"
2_13,0.76,34.2,"[0.92, 37.43]"
3_3,0.76,34.2,"[0.91, 38.64]"
1_9,0.76,34.24,"[0.91, 38.45]"
3_2,0.76,34.24,"[0.91, 38.98]"
2_3,0.76,34.27,"[0.91, 38.87]"
2_4,0.76,34.3,"[0.91, 38.63]"
1_8,0.76,34.31,"[0.91, 38.57]"
1_7,0.76,34.32,"[0.91, 38.71]"
3_12,0.76,34.32,"[0.92, 37.35]"
2_14,0.76,34.33,"[0.92, 37.35]"
2_15,0.76,34.42,"[0.92, 37.26]"
3_13,0.76,34.42,"[0.92, 37.26]"
3_14,0.76,34.51,"[0.92, 37.2]"
2_16,0.76,34.53,"[0.92, 37.21]"
2_17,0.76,34.61,"[0.92, 37.17]"
2_18,0.76,34.69,"[0.92, 37.12]"
3_15,0.76,34.69,"[0.92, 37.15]"
3_19,0.76,34.72,"[0.92, 37.06]"
2_19,0.76,34.75,"[0.92, 37.06]"
3_16,0.76,34.75,"[0.92, 37.12]"
3_17,0.76,34.77,"[0.92, 37.11]"
3_18,0.76,34.78,"[0.92, 37.09]"
1_2,0.75,34.01,"[0.91, 39.33]"
3_1,0.75,34.03,"[0.91, 39.32]"
2_1,0.75,34.05,"[0.91, 39.39]"
1_3,0.75,34.08,"[0.91, 39.15]"
1_4,0.75,34.14,"[0.91, 39.05]"
1_5,0.75,34.23,"[0.91, 38.94]"
1_6,0.75,34.31,"[0.91, 38.81]"
1_1,0.75,34.33,"[0.91, 39.58]"
1_0,0.75,34.64,"[0.9, 40.0]"
2_0,0.75,34.64,"[0.9, 40.0]"
3_0,0.75,34.64,"[0.9, 40.0]"
